^C:\USERS\ANTON\ONEDRIVE\DOCUMENTS\VISUAL STUDIO 2015\PROJECTS\CONSOLEAPPLICATION5\CONSOLEAPPLICATION5\SOURCE.CPP
C:\USERS\ANTON\ONEDRIVE\DOCUMENTS\VISUAL STUDIO 2015\PROJECTS\CONSOLEAPPLICATION5\CONSOLEAPPLICATION5\DEBUG\VC140.PDB
C:\USERS\ANTON\ONEDRIVE\DOCUMENTS\VISUAL STUDIO 2015\PROJECTS\CONSOLEAPPLICATION5\CONSOLEAPPLICATION5\DEBUG\VC140.IDB
C:\USERS\ANTON\ONEDRIVE\DOCUMENTS\VISUAL STUDIO 2015\PROJECTS\CONSOLEAPPLICATION5\CONSOLEAPPLICATION5\DEBUG\SOURCE.OBJ
